…
``` r
all_trips_v2 %>% 
  group_by(member_casual, month) %>%  #groups by usertype and weekday
  summarise(number_of_rides = n()                           #calculates the number of rides and average duration 
  ,average_duration = mean(ride_length)) %>%        # calculates the average duration
  arrange(member_casual, month)                             # sorts
```

    ## `summarise()` has grouped output by 'member_casual'. You can override using the `.groups` argument.

    ## # A tibble: 24 × 4
    ## # Groups:   member_casual [2]
    ##    member_casual month number_of_rides average_duration
    ##    <chr>         <chr>           <int> <drtn>          
    ##  1 casual        01              18117 1541.075 secs   
    ##  2 casual        02              10131 2962.394 secs   
    ##  3 casual        03              84032 2289.551 secs   
    ##  4 casual        04             136601 2281.379 secs   
    ##  5 casual        05             256916 2293.858 secs   
    ##  6 casual        06             370678 2227.304 secs   
    ##  7 casual        07             442048 1967.446 secs   
    ##  8 casual        08             412662 1727.221 secs   
    ##  9 casual        09             363883 1668.932 secs   
    ## 10 casual        10             257242 1720.438 secs   
    ## # … with 14 more rows
…
